analysis - ATP and WTA rankings
…
## This method gives one (mean,SD) pair for each player for the entire dataframe, i.e. for a 10-year period.
rankingStats = rankings %>%  
  group_by(player) %>% 
  summarise(
    meanRanking = mean(rank, na.rm = TRUE),
    spreadRanking = sd(rank, na.rm = TRUE)
  ) %>% 
  na.omit()
rankingStats 

## # A tibble: 87 x 3
##   player meanRanking spreadRanking
##    <dbl>       <dbl>         <dbl>
## 1 101611       12.3           4.32
## 2 101736        4.80          3.01
## 3 101774       12.3           2.81
## 4 101948        8.01          5.17
## 5 101962       16.9           1.73
## 6 101964       15.2           1.96
## # ... with 81 more rows
…
