…
``` r
olympics_data %>%
  group_by(team) %>%
   summarise(count=n())
```

    ## # A tibble: 1,184 × 2
    ##    team                  count
    ##    <chr>                 <int>
    ##  1 30. Februar               2
    ##  2 A North American Team     4
    ##  3 Acipactli                 3
    ##  4 Acturus                   2
    ##  5 Afghanistan             126
    ##  6 Akatonbo                  3
    ##  7 Alain IV                  3
    ##  8 Albania                  70
    ##  9 Alcaid                    3
    ## 10 Alcyon-6                  1
    ## # … with 1,174 more rows

``` r
olympics_data %>%
  group_by(sport) %>%
   summarise(count=n())
```

    ## # A tibble: 66 × 2
    ##    sport            count
    ##    <chr>            <int>
    ##  1 Aeronautics          1
    ##  2 Alpine Skiing     8829
    ##  3 Alpinism            25
    ##  4 Archery           2334
    ##  5 Art Competitions  3578
    ##  6 Athletics        38624
    ##  7 Badminton         1457
    ##  8 Baseball           894
    ##  9 Basketball        4536
    ## 10 Basque Pelota        2
    ## # … with 56 more rows

``` r
olympics_data %>%
  group_by(city) %>%
   summarise(count=n())
```

    ## # A tibble: 42 × 2
    ##    city        count
    ##    <chr>       <int>
    ##  1 Albertville  3436
    ##  2 Amsterdam    4992
    ##  3 Antwerpen    4292
    ##  4 Athina      15556
    ##  5 Atlanta     13780
    ##  6 Barcelona   12977
    ##  7 Beijing     13602
    ##  8 Berlin       6506
    ##  9 Calgary      2639
    ## 10 Chamonix      460
    ## # … with 32 more rows
…
